srv.ItemData.Accessory,,,,
Name,Level,Image,Categories,Notes
Azure Orb,1,accessories/azureOrb.png,Orbs,
Craven Orb,1,accessories/cravenOrb.png,Orbs,
Flame Orb,1,accessories/flamingOrb.png,Orbs,
Heliotrop Orb,1,accessories/heliotropOrb.png,Orbs,
Perse Orb,1,accessories/perseOrb.png,Orbs,
Verdant Orb,1,accessories/verdantOrb.png,Orbs,
Tome1,1,accessories/tome1.png,Tomes,
Tome2,1,accessories/tome2.png,Tomes,
Tome3,1,accessories/tome3.png,Tomes,
Tome4,1,accessories/tome4.png,Tomes,
Tome5,1,accessories/tome5.png,Tomes,
Tome6,1,accessories/tome6.png,Tomes,
Tome7,1,accessories/tome7.png,Tomes,
Tome8,1,accessories/tome8.png,Tomes,
Necklace1,1,accessories/necklace1.png,Necklaces,
Necklace2,1,accessories/necklace2.png,Necklaces,
Necklace3,1,accessories/necklace3.png,Necklaces,
Necklace4,1,accessories/necklace4.png,Necklaces,
Necklace5,1,accessories/necklace5.png,Necklaces,
Cross Necklace,1,accessories/crossNecklace.png,Necklaces,
Diamond Necklace,1,accessories/diamondNecklace.png,Necklaces,
Gold Necklace,1,accessories/goldenNecklace.png,Necklaces,
Ruby Ring,1,accessories/ring.png,Rings,
